{
    "description": "Custom VPN Toggler (and indicator) allows to see the status of a VPN (with its icon), see IP address associated and permit to start and stop VPN (from a menu).\n\nThis plugin required an additional script to interact with VPN. \nAn example for netExtender is available on extension repository. \nFollow the link to Extension Web Site and see README.",
    "gettext-domain": "custom-vpn-toggler@giteduberger.fr",
    "name": "Custom VPN Toggler (and indicator)",
    "settings-schema": "fr.giteduberger.custom-vpn-toggler",
    "shell-version": [
        "3.36",
        "3.38"
    ],
    "url": "https://gitlab.com/XavierBerger/custom-vpn-toggler",
    "uuid": "custom-vpn-toggler@giteduberger.fr",
    "version": 4
}